<?xml version="1.0" encoding="UTF-8" ?>
<svg version="1.1" width="160" height="16" xmlns="http://www.w3.org/2000/svg" shape-rendering="crispEdges">
<rect x="7" y="4" width="1" height="1" fill="#000000" />
<rect x="8" y="4" width="1" height="1" fill="#000000" />
<rect x="9" y="4" width="1" height="1" fill="#000000" />
<rect x="10" y="4" width="1" height="1" fill="#000000" />
<rect x="11" y="4" width="1" height="1" fill="#000000" />
<rect x="12" y="4" width="1" height="1" fill="#000000" />
<rect x="29" y="4" width="1" height="1" fill="#000000" />
<rect x="30" y="4" width="1" height="1" fill="#000000" />
<rect x="31" y="4" width="1" height="1" fill="#000000" />
<rect x="32" y="4" width="1" height="1" fill="#000000" />
<rect x="33" y="4" width="1" height="1" fill="#000000" />
<rect x="34" y="4" width="1" height="1" fill="#000000" />
<rect x="35" y="4" width="1" height="1" fill="#000000" />
<rect x="36" y="4" width="1" height="1" fill="#000000" />
<rect x="37" y="4" width="1" height="1" fill="#000000" />
<rect x="38" y="4" width="1" height="1" fill="#000000" />
<rect x="85" y="4" width="1" height="1" fill="#000000" />
<rect x="86" y="4" width="1" height="1" fill="#000000" />
<rect x="87" y="4" width="1" height="1" fill="#000000" />
<rect x="88" y="4" width="1" height="1" fill="#000000" />
<rect x="89" y="4" width="1" height="1" fill="#000000" />
<rect x="90" y="4" width="1" height="1" fill="#000000" />
<rect x="7" y="5" width="1" height="1" fill="#000000" />
<rect x="8" y="5" width="1" height="1" fill="#496CBE" />
<rect x="9" y="5" width="1" height="1" fill="#496CBE" />
<rect x="10" y="5" width="1" height="1" fill="#496CBE" />
<rect x="11" y="5" width="1" height="1" fill="#496CBE" />
<rect x="12" y="5" width="1" height="1" fill="#496CBE" />
<rect x="13" y="5" width="1" height="1" fill="#000000" />
<rect x="29" y="5" width="1" height="1" fill="#000000" />
<rect x="30" y="5" width="1" height="1" fill="#76428A" />
<rect x="31" y="5" width="1" height="1" fill="#76428A" />
<rect x="32" y="5" width="1" height="1" fill="#76428A" />
<rect x="33" y="5" width="1" height="1" fill="#76428A" />
<rect x="34" y="5" width="1" height="1" fill="#76428A" />
<rect x="35" y="5" width="1" height="1" fill="#76428A" />
<rect x="36" y="5" width="1" height="1" fill="#76428A" />
<rect x="37" y="5" width="1" height="1" fill="#76428A" />
<rect x="38" y="5" width="1" height="1" fill="#000000" />
<rect x="85" y="5" width="1" height="1" fill="#000000" />
<rect x="86" y="5" width="1" height="1" fill="#DF213F" />
<rect x="87" y="5" width="1" height="1" fill="#DF213F" />
<rect x="88" y="5" width="1" height="1" fill="#DF213F" />
<rect x="89" y="5" width="1" height="1" fill="#DF213F" />
<rect x="90" y="5" width="1" height="1" fill="#000000" />
<rect x="91" y="5" width="1" height="1" fill="#000000" />
<rect x="7" y="6" width="1" height="1" fill="#000000" />
<rect x="8" y="6" width="1" height="1" fill="#496CBE" />
<rect x="9" y="6" width="1" height="1" fill="#496CBE" />
<rect x="10" y="6" width="1" height="1" fill="#496CBE" />
<rect x="11" y="6" width="1" height="1" fill="#496CBE" />
<rect x="12" y="6" width="1" height="1" fill="#496CBE" />
<rect x="13" y="6" width="1" height="1" fill="#496CBE" />
<rect x="14" y="6" width="1" height="1" fill="#000000" />
<rect x="18" y="6" width="1" height="1" fill="#000000" />
<rect x="19" y="6" width="1" height="1" fill="#000000" />
<rect x="20" y="6" width="1" height="1" fill="#000000" />
<rect x="21" y="6" width="1" height="1" fill="#000000" />
<rect x="29" y="6" width="1" height="1" fill="#000000" />
<rect x="30" y="6" width="1" height="1" fill="#000000" />
<rect x="31" y="6" width="1" height="1" fill="#000000" />
<rect x="32" y="6" width="1" height="1" fill="#000000" />
<rect x="33" y="6" width="1" height="1" fill="#76428A" />
<rect x="34" y="6" width="1" height="1" fill="#76428A" />
<rect x="35" y="6" width="1" height="1" fill="#000000" />
<rect x="36" y="6" width="1" height="1" fill="#000000" />
<rect x="37" y="6" width="1" height="1" fill="#000000" />
<rect x="38" y="6" width="1" height="1" fill="#000000" />
<rect x="41" y="6" width="1" height="1" fill="#000000" />
<rect x="42" y="6" width="1" height="1" fill="#000000" />
<rect x="45" y="6" width="1" height="1" fill="#000000" />
<rect x="46" y="6" width="1" height="1" fill="#000000" />
<rect x="49" y="6" width="1" height="1" fill="#000000" />
<rect x="50" y="6" width="1" height="1" fill="#000000" />
<rect x="51" y="6" width="1" height="1" fill="#000000" />
<rect x="52" y="6" width="1" height="1" fill="#000000" />
<rect x="53" y="6" width="1" height="1" fill="#000000" />
<rect x="57" y="6" width="1" height="1" fill="#000000" />
<rect x="58" y="6" width="1" height="1" fill="#000000" />
<rect x="59" y="6" width="1" height="1" fill="#000000" />
<rect x="60" y="6" width="1" height="1" fill="#000000" />
<rect x="61" y="6" width="1" height="1" fill="#000000" />
<rect x="62" y="6" width="1" height="1" fill="#000000" />
<rect x="66" y="6" width="1" height="1" fill="#000000" />
<rect x="67" y="6" width="1" height="1" fill="#000000" />
<rect x="68" y="6" width="1" height="1" fill="#000000" />
<rect x="69" y="6" width="1" height="1" fill="#000000" />
<rect x="73" y="6" width="1" height="1" fill="#000000" />
<rect x="74" y="6" width="1" height="1" fill="#000000" />
<rect x="75" y="6" width="1" height="1" fill="#000000" />
<rect x="76" y="6" width="1" height="1" fill="#000000" />
<rect x="77" y="6" width="1" height="1" fill="#000000" />
<rect x="78" y="6" width="1" height="1" fill="#000000" />
<rect x="85" y="6" width="1" height="1" fill="#000000" />
<rect x="86" y="6" width="1" height="1" fill="#DF213F" />
<rect x="87" y="6" width="1" height="1" fill="#DF213F" />
<rect x="88" y="6" width="1" height="1" fill="#000000" />
<rect x="89" y="6" width="1" height="1" fill="#DF213F" />
<rect x="90" y="6" width="1" height="1" fill="#DF213F" />
<rect x="91" y="6" width="1" height="1" fill="#000000" />
<rect x="92" y="6" width="1" height="1" fill="#000000" />
<rect x="95" y="6" width="1" height="1" fill="#000000" />
<rect x="96" y="6" width="1" height="1" fill="#000000" />
<rect x="97" y="6" width="1" height="1" fill="#000000" />
<rect x="98" y="6" width="1" height="1" fill="#000000" />
<rect x="99" y="6" width="1" height="1" fill="#000000" />
<rect x="100" y="6" width="1" height="1" fill="#000000" />
<rect x="103" y="6" width="1" height="1" fill="#000000" />
<rect x="104" y="6" width="1" height="1" fill="#000000" />
<rect x="105" y="6" width="1" height="1" fill="#000000" />
<rect x="106" y="6" width="1" height="1" fill="#000000" />
<rect x="107" y="6" width="1" height="1" fill="#000000" />
<rect x="108" y="6" width="1" height="1" fill="#000000" />
<rect x="111" y="6" width="1" height="1" fill="#000000" />
<rect x="112" y="6" width="1" height="1" fill="#000000" />
<rect x="113" y="6" width="1" height="1" fill="#000000" />
<rect x="114" y="6" width="1" height="1" fill="#000000" />
<rect x="115" y="6" width="1" height="1" fill="#000000" />
<rect x="116" y="6" width="1" height="1" fill="#000000" />
<rect x="120" y="6" width="1" height="1" fill="#000000" />
<rect x="121" y="6" width="1" height="1" fill="#000000" />
<rect x="122" y="6" width="1" height="1" fill="#000000" />
<rect x="123" y="6" width="1" height="1" fill="#000000" />
<rect x="127" y="6" width="1" height="1" fill="#000000" />
<rect x="128" y="6" width="1" height="1" fill="#000000" />
<rect x="129" y="6" width="1" height="1" fill="#000000" />
<rect x="130" y="6" width="1" height="1" fill="#000000" />
<rect x="131" y="6" width="1" height="1" fill="#000000" />
<rect x="132" y="6" width="1" height="1" fill="#000000" />
<rect x="135" y="6" width="1" height="1" fill="#000000" />
<rect x="136" y="6" width="1" height="1" fill="#000000" />
<rect x="137" y="6" width="1" height="1" fill="#000000" />
<rect x="138" y="6" width="1" height="1" fill="#000000" />
<rect x="139" y="6" width="1" height="1" fill="#000000" />
<rect x="140" y="6" width="1" height="1" fill="#000000" />
<rect x="143" y="6" width="1" height="1" fill="#000000" />
<rect x="144" y="6" width="1" height="1" fill="#000000" />
<rect x="145" y="6" width="1" height="1" fill="#000000" />
<rect x="146" y="6" width="1" height="1" fill="#000000" />
<rect x="7" y="7" width="1" height="1" fill="#000000" />
<rect x="8" y="7" width="1" height="1" fill="#496CBE" />
<rect x="9" y="7" width="1" height="1" fill="#496CBE" />
<rect x="10" y="7" width="1" height="1" fill="#000000" />
<rect x="11" y="7" width="1" height="1" fill="#000000" />
<rect x="12" y="7" width="1" height="1" fill="#496CBE" />
<rect x="13" y="7" width="1" height="1" fill="#496CBE" />
<rect x="14" y="7" width="1" height="1" fill="#000000" />
<rect x="17" y="7" width="1" height="1" fill="#000000" />
<rect x="18" y="7" width="1" height="1" fill="#000000" />
<rect x="21" y="7" width="1" height="1" fill="#000000" />
<rect x="22" y="7" width="1" height="1" fill="#000000" />
<rect x="32" y="7" width="1" height="1" fill="#000000" />
<rect x="33" y="7" width="1" height="1" fill="#76428A" />
<rect x="34" y="7" width="1" height="1" fill="#76428A" />
<rect x="35" y="7" width="1" height="1" fill="#000000" />
<rect x="41" y="7" width="1" height="1" fill="#000000" />
<rect x="42" y="7" width="1" height="1" fill="#000000" />
<rect x="45" y="7" width="1" height="1" fill="#000000" />
<rect x="46" y="7" width="1" height="1" fill="#000000" />
<rect x="49" y="7" width="1" height="1" fill="#000000" />
<rect x="50" y="7" width="1" height="1" fill="#000000" />
<rect x="53" y="7" width="1" height="1" fill="#000000" />
<rect x="54" y="7" width="1" height="1" fill="#000000" />
<rect x="57" y="7" width="1" height="1" fill="#000000" />
<rect x="58" y="7" width="1" height="1" fill="#000000" />
<rect x="65" y="7" width="1" height="1" fill="#000000" />
<rect x="66" y="7" width="1" height="1" fill="#000000" />
<rect x="69" y="7" width="1" height="1" fill="#000000" />
<rect x="70" y="7" width="1" height="1" fill="#000000" />
<rect x="75" y="7" width="1" height="1" fill="#000000" />
<rect x="76" y="7" width="1" height="1" fill="#000000" />
<rect x="85" y="7" width="1" height="1" fill="#000000" />
<rect x="86" y="7" width="1" height="1" fill="#DF213F" />
<rect x="87" y="7" width="1" height="1" fill="#DF213F" />
<rect x="88" y="7" width="1" height="1" fill="#000000" />
<rect x="89" y="7" width="1" height="1" fill="#000000" />
<rect x="90" y="7" width="1" height="1" fill="#DF213F" />
<rect x="91" y="7" width="1" height="1" fill="#DF213F" />
<rect x="92" y="7" width="1" height="1" fill="#000000" />
<rect x="95" y="7" width="1" height="1" fill="#000000" />
<rect x="96" y="7" width="1" height="1" fill="#000000" />
<rect x="105" y="7" width="1" height="1" fill="#000000" />
<rect x="106" y="7" width="1" height="1" fill="#000000" />
<rect x="111" y="7" width="1" height="1" fill="#000000" />
<rect x="112" y="7" width="1" height="1" fill="#000000" />
<rect x="119" y="7" width="1" height="1" fill="#000000" />
<rect x="120" y="7" width="1" height="1" fill="#000000" />
<rect x="123" y="7" width="1" height="1" fill="#000000" />
<rect x="124" y="7" width="1" height="1" fill="#000000" />
<rect x="129" y="7" width="1" height="1" fill="#000000" />
<rect x="130" y="7" width="1" height="1" fill="#000000" />
<rect x="135" y="7" width="1" height="1" fill="#000000" />
<rect x="136" y="7" width="1" height="1" fill="#000000" />
<rect x="143" y="7" width="1" height="1" fill="#000000" />
<rect x="144" y="7" width="1" height="1" fill="#000000" />
<rect x="146" y="7" width="1" height="1" fill="#000000" />
<rect x="147" y="7" width="1" height="1" fill="#000000" />
<rect x="7" y="8" width="1" height="1" fill="#000000" />
<rect x="8" y="8" width="1" height="1" fill="#496CBE" />
<rect x="9" y="8" width="1" height="1" fill="#496CBE" />
<rect x="10" y="8" width="1" height="1" fill="#000000" />
<rect x="11" y="8" width="1" height="1" fill="#000000" />
<rect x="12" y="8" width="1" height="1" fill="#496CBE" />
<rect x="13" y="8" width="1" height="1" fill="#496CBE" />
<rect x="14" y="8" width="1" height="1" fill="#000000" />
<rect x="17" y="8" width="1" height="1" fill="#000000" />
<rect x="18" y="8" width="1" height="1" fill="#000000" />
<rect x="21" y="8" width="1" height="1" fill="#000000" />
<rect x="22" y="8" width="1" height="1" fill="#000000" />
<rect x="32" y="8" width="1" height="1" fill="#000000" />
<rect x="33" y="8" width="1" height="1" fill="#76428A" />
<rect x="34" y="8" width="1" height="1" fill="#76428A" />
<rect x="35" y="8" width="1" height="1" fill="#000000" />
<rect x="41" y="8" width="1" height="1" fill="#000000" />
<rect x="42" y="8" width="1" height="1" fill="#000000" />
<rect x="43" y="8" width="1" height="1" fill="#000000" />
<rect x="44" y="8" width="1" height="1" fill="#000000" />
<rect x="45" y="8" width="1" height="1" fill="#000000" />
<rect x="46" y="8" width="1" height="1" fill="#000000" />
<rect x="49" y="8" width="1" height="1" fill="#000000" />
<rect x="50" y="8" width="1" height="1" fill="#000000" />
<rect x="53" y="8" width="1" height="1" fill="#000000" />
<rect x="54" y="8" width="1" height="1" fill="#000000" />
<rect x="57" y="8" width="1" height="1" fill="#000000" />
<rect x="58" y="8" width="1" height="1" fill="#000000" />
<rect x="59" y="8" width="1" height="1" fill="#000000" />
<rect x="60" y="8" width="1" height="1" fill="#000000" />
<rect x="61" y="8" width="1" height="1" fill="#000000" />
<rect x="65" y="8" width="1" height="1" fill="#000000" />
<rect x="66" y="8" width="1" height="1" fill="#000000" />
<rect x="69" y="8" width="1" height="1" fill="#000000" />
<rect x="70" y="8" width="1" height="1" fill="#000000" />
<rect x="75" y="8" width="1" height="1" fill="#000000" />
<rect x="76" y="8" width="1" height="1" fill="#000000" />
<rect x="85" y="8" width="1" height="1" fill="#000000" />
<rect x="86" y="8" width="1" height="1" fill="#DF213F" />
<rect x="87" y="8" width="1" height="1" fill="#DF213F" />
<rect x="88" y="8" width="1" height="1" fill="#000000" />
<rect x="89" y="8" width="1" height="1" fill="#000000" />
<rect x="90" y="8" width="1" height="1" fill="#DF213F" />
<rect x="91" y="8" width="1" height="1" fill="#DF213F" />
<rect x="92" y="8" width="1" height="1" fill="#000000" />
<rect x="95" y="8" width="1" height="1" fill="#000000" />
<rect x="96" y="8" width="1" height="1" fill="#000000" />
<rect x="97" y="8" width="1" height="1" fill="#000000" />
<rect x="98" y="8" width="1" height="1" fill="#000000" />
<rect x="99" y="8" width="1" height="1" fill="#000000" />
<rect x="105" y="8" width="1" height="1" fill="#000000" />
<rect x="106" y="8" width="1" height="1" fill="#000000" />
<rect x="111" y="8" width="1" height="1" fill="#000000" />
<rect x="112" y="8" width="1" height="1" fill="#000000" />
<rect x="113" y="8" width="1" height="1" fill="#000000" />
<rect x="114" y="8" width="1" height="1" fill="#000000" />
<rect x="115" y="8" width="1" height="1" fill="#000000" />
<rect x="119" y="8" width="1" height="1" fill="#000000" />
<rect x="120" y="8" width="1" height="1" fill="#000000" />
<rect x="129" y="8" width="1" height="1" fill="#000000" />
<rect x="130" y="8" width="1" height="1" fill="#000000" />
<rect x="135" y="8" width="1" height="1" fill="#000000" />
<rect x="136" y="8" width="1" height="1" fill="#000000" />
<rect x="137" y="8" width="1" height="1" fill="#000000" />
<rect x="138" y="8" width="1" height="1" fill="#000000" />
<rect x="139" y="8" width="1" height="1" fill="#000000" />
<rect x="143" y="8" width="1" height="1" fill="#000000" />
<rect x="144" y="8" width="1" height="1" fill="#000000" />
<rect x="147" y="8" width="1" height="1" fill="#000000" />
<rect x="148" y="8" width="1" height="1" fill="#000000" />
<rect x="7" y="9" width="1" height="1" fill="#000000" />
<rect x="8" y="9" width="1" height="1" fill="#496CBE" />
<rect x="9" y="9" width="1" height="1" fill="#496CBE" />
<rect x="10" y="9" width="1" height="1" fill="#000000" />
<rect x="11" y="9" width="1" height="1" fill="#000000" />
<rect x="12" y="9" width="1" height="1" fill="#496CBE" />
<rect x="13" y="9" width="1" height="1" fill="#496CBE" />
<rect x="14" y="9" width="1" height="1" fill="#000000" />
<rect x="17" y="9" width="1" height="1" fill="#000000" />
<rect x="18" y="9" width="1" height="1" fill="#000000" />
<rect x="21" y="9" width="1" height="1" fill="#000000" />
<rect x="22" y="9" width="1" height="1" fill="#000000" />
<rect x="32" y="9" width="1" height="1" fill="#000000" />
<rect x="33" y="9" width="1" height="1" fill="#76428A" />
<rect x="34" y="9" width="1" height="1" fill="#76428A" />
<rect x="35" y="9" width="1" height="1" fill="#000000" />
<rect x="41" y="9" width="1" height="1" fill="#000000" />
<rect x="42" y="9" width="1" height="1" fill="#000000" />
<rect x="45" y="9" width="1" height="1" fill="#000000" />
<rect x="46" y="9" width="1" height="1" fill="#000000" />
<rect x="49" y="9" width="1" height="1" fill="#000000" />
<rect x="50" y="9" width="1" height="1" fill="#000000" />
<rect x="51" y="9" width="1" height="1" fill="#000000" />
<rect x="52" y="9" width="1" height="1" fill="#000000" />
<rect x="53" y="9" width="1" height="1" fill="#000000" />
<rect x="57" y="9" width="1" height="1" fill="#000000" />
<rect x="58" y="9" width="1" height="1" fill="#000000" />
<rect x="65" y="9" width="1" height="1" fill="#000000" />
<rect x="66" y="9" width="1" height="1" fill="#000000" />
<rect x="67" y="9" width="1" height="1" fill="#000000" />
<rect x="68" y="9" width="1" height="1" fill="#000000" />
<rect x="69" y="9" width="1" height="1" fill="#000000" />
<rect x="70" y="9" width="1" height="1" fill="#000000" />
<rect x="75" y="9" width="1" height="1" fill="#000000" />
<rect x="76" y="9" width="1" height="1" fill="#000000" />
<rect x="85" y="9" width="1" height="1" fill="#000000" />
<rect x="86" y="9" width="1" height="1" fill="#DF213F" />
<rect x="87" y="9" width="1" height="1" fill="#DF213F" />
<rect x="88" y="9" width="1" height="1" fill="#000000" />
<rect x="89" y="9" width="1" height="1" fill="#000000" />
<rect x="90" y="9" width="1" height="1" fill="#DF213F" />
<rect x="91" y="9" width="1" height="1" fill="#DF213F" />
<rect x="92" y="9" width="1" height="1" fill="#000000" />
<rect x="95" y="9" width="1" height="1" fill="#000000" />
<rect x="96" y="9" width="1" height="1" fill="#000000" />
<rect x="105" y="9" width="1" height="1" fill="#000000" />
<rect x="106" y="9" width="1" height="1" fill="#000000" />
<rect x="111" y="9" width="1" height="1" fill="#000000" />
<rect x="112" y="9" width="1" height="1" fill="#000000" />
<rect x="119" y="9" width="1" height="1" fill="#000000" />
<rect x="120" y="9" width="1" height="1" fill="#000000" />
<rect x="129" y="9" width="1" height="1" fill="#000000" />
<rect x="130" y="9" width="1" height="1" fill="#000000" />
<rect x="135" y="9" width="1" height="1" fill="#000000" />
<rect x="136" y="9" width="1" height="1" fill="#000000" />
<rect x="143" y="9" width="1" height="1" fill="#000000" />
<rect x="144" y="9" width="1" height="1" fill="#000000" />
<rect x="147" y="9" width="1" height="1" fill="#000000" />
<rect x="148" y="9" width="1" height="1" fill="#000000" />
<rect x="7" y="10" width="1" height="1" fill="#000000" />
<rect x="8" y="10" width="1" height="1" fill="#496CBE" />
<rect x="9" y="10" width="1" height="1" fill="#496CBE" />
<rect x="10" y="10" width="1" height="1" fill="#000000" />
<rect x="11" y="10" width="1" height="1" fill="#000000" />
<rect x="12" y="10" width="1" height="1" fill="#496CBE" />
<rect x="13" y="10" width="1" height="1" fill="#496CBE" />
<rect x="14" y="10" width="1" height="1" fill="#000000" />
<rect x="17" y="10" width="1" height="1" fill="#000000" />
<rect x="18" y="10" width="1" height="1" fill="#000000" />
<rect x="21" y="10" width="1" height="1" fill="#000000" />
<rect x="22" y="10" width="1" height="1" fill="#000000" />
<rect x="32" y="10" width="1" height="1" fill="#000000" />
<rect x="33" y="10" width="1" height="1" fill="#76428A" />
<rect x="34" y="10" width="1" height="1" fill="#76428A" />
<rect x="35" y="10" width="1" height="1" fill="#000000" />
<rect x="41" y="10" width="1" height="1" fill="#000000" />
<rect x="42" y="10" width="1" height="1" fill="#000000" />
<rect x="45" y="10" width="1" height="1" fill="#000000" />
<rect x="46" y="10" width="1" height="1" fill="#000000" />
<rect x="49" y="10" width="1" height="1" fill="#000000" />
<rect x="50" y="10" width="1" height="1" fill="#000000" />
<rect x="53" y="10" width="1" height="1" fill="#000000" />
<rect x="57" y="10" width="1" height="1" fill="#000000" />
<rect x="58" y="10" width="1" height="1" fill="#000000" />
<rect x="65" y="10" width="1" height="1" fill="#000000" />
<rect x="66" y="10" width="1" height="1" fill="#000000" />
<rect x="69" y="10" width="1" height="1" fill="#000000" />
<rect x="70" y="10" width="1" height="1" fill="#000000" />
<rect x="75" y="10" width="1" height="1" fill="#000000" />
<rect x="76" y="10" width="1" height="1" fill="#000000" />
<rect x="85" y="10" width="1" height="1" fill="#000000" />
<rect x="86" y="10" width="1" height="1" fill="#DF213F" />
<rect x="87" y="10" width="1" height="1" fill="#DF213F" />
<rect x="88" y="10" width="1" height="1" fill="#000000" />
<rect x="89" y="10" width="1" height="1" fill="#000000" />
<rect x="90" y="10" width="1" height="1" fill="#DF213F" />
<rect x="91" y="10" width="1" height="1" fill="#DF213F" />
<rect x="92" y="10" width="1" height="1" fill="#000000" />
<rect x="95" y="10" width="1" height="1" fill="#000000" />
<rect x="96" y="10" width="1" height="1" fill="#000000" />
<rect x="105" y="10" width="1" height="1" fill="#000000" />
<rect x="106" y="10" width="1" height="1" fill="#000000" />
<rect x="111" y="10" width="1" height="1" fill="#000000" />
<rect x="112" y="10" width="1" height="1" fill="#000000" />
<rect x="119" y="10" width="1" height="1" fill="#000000" />
<rect x="120" y="10" width="1" height="1" fill="#000000" />
<rect x="123" y="10" width="1" height="1" fill="#000000" />
<rect x="124" y="10" width="1" height="1" fill="#000000" />
<rect x="129" y="10" width="1" height="1" fill="#000000" />
<rect x="130" y="10" width="1" height="1" fill="#000000" />
<rect x="135" y="10" width="1" height="1" fill="#000000" />
<rect x="136" y="10" width="1" height="1" fill="#000000" />
<rect x="143" y="10" width="1" height="1" fill="#000000" />
<rect x="144" y="10" width="1" height="1" fill="#000000" />
<rect x="147" y="10" width="1" height="1" fill="#000000" />
<rect x="148" y="10" width="1" height="1" fill="#000000" />
<rect x="7" y="11" width="1" height="1" fill="#000000" />
<rect x="8" y="11" width="1" height="1" fill="#496CBE" />
<rect x="9" y="11" width="1" height="1" fill="#496CBE" />
<rect x="10" y="11" width="1" height="1" fill="#000000" />
<rect x="11" y="11" width="1" height="1" fill="#000000" />
<rect x="12" y="11" width="1" height="1" fill="#496CBE" />
<rect x="13" y="11" width="1" height="1" fill="#496CBE" />
<rect x="14" y="11" width="1" height="1" fill="#000000" />
<rect x="18" y="11" width="1" height="1" fill="#000000" />
<rect x="19" y="11" width="1" height="1" fill="#000000" />
<rect x="20" y="11" width="1" height="1" fill="#000000" />
<rect x="21" y="11" width="1" height="1" fill="#000000" />
<rect x="32" y="11" width="1" height="1" fill="#000000" />
<rect x="33" y="11" width="1" height="1" fill="#76428A" />
<rect x="34" y="11" width="1" height="1" fill="#76428A" />
<rect x="35" y="11" width="1" height="1" fill="#000000" />
<rect x="41" y="11" width="1" height="1" fill="#000000" />
<rect x="42" y="11" width="1" height="1" fill="#000000" />
<rect x="45" y="11" width="1" height="1" fill="#000000" />
<rect x="46" y="11" width="1" height="1" fill="#000000" />
<rect x="49" y="11" width="1" height="1" fill="#000000" />
<rect x="50" y="11" width="1" height="1" fill="#000000" />
<rect x="53" y="11" width="1" height="1" fill="#000000" />
<rect x="54" y="11" width="1" height="1" fill="#000000" />
<rect x="57" y="11" width="1" height="1" fill="#000000" />
<rect x="58" y="11" width="1" height="1" fill="#000000" />
<rect x="59" y="11" width="1" height="1" fill="#000000" />
<rect x="60" y="11" width="1" height="1" fill="#000000" />
<rect x="61" y="11" width="1" height="1" fill="#000000" />
<rect x="62" y="11" width="1" height="1" fill="#000000" />
<rect x="65" y="11" width="1" height="1" fill="#000000" />
<rect x="66" y="11" width="1" height="1" fill="#000000" />
<rect x="69" y="11" width="1" height="1" fill="#000000" />
<rect x="70" y="11" width="1" height="1" fill="#000000" />
<rect x="75" y="11" width="1" height="1" fill="#000000" />
<rect x="76" y="11" width="1" height="1" fill="#000000" />
<rect x="85" y="11" width="1" height="1" fill="#000000" />
<rect x="86" y="11" width="1" height="1" fill="#DF213F" />
<rect x="87" y="11" width="1" height="1" fill="#DF213F" />
<rect x="88" y="11" width="1" height="1" fill="#DF213F" />
<rect x="89" y="11" width="1" height="1" fill="#DF213F" />
<rect x="90" y="11" width="1" height="1" fill="#DF213F" />
<rect x="91" y="11" width="1" height="1" fill="#000000" />
<rect x="92" y="11" width="1" height="1" fill="#000000" />
<rect x="95" y="11" width="1" height="1" fill="#000000" />
<rect x="96" y="11" width="1" height="1" fill="#000000" />
<rect x="97" y="11" width="1" height="1" fill="#000000" />
<rect x="98" y="11" width="1" height="1" fill="#000000" />
<rect x="99" y="11" width="1" height="1" fill="#000000" />
<rect x="100" y="11" width="1" height="1" fill="#000000" />
<rect x="105" y="11" width="1" height="1" fill="#000000" />
<rect x="106" y="11" width="1" height="1" fill="#000000" />
<rect x="111" y="11" width="1" height="1" fill="#000000" />
<rect x="112" y="11" width="1" height="1" fill="#000000" />
<rect x="113" y="11" width="1" height="1" fill="#000000" />
<rect x="114" y="11" width="1" height="1" fill="#000000" />
<rect x="115" y="11" width="1" height="1" fill="#000000" />
<rect x="116" y="11" width="1" height="1" fill="#000000" />
<rect x="120" y="11" width="1" height="1" fill="#000000" />
<rect x="121" y="11" width="1" height="1" fill="#000000" />
<rect x="122" y="11" width="1" height="1" fill="#000000" />
<rect x="123" y="11" width="1" height="1" fill="#000000" />
<rect x="129" y="11" width="1" height="1" fill="#000000" />
<rect x="130" y="11" width="1" height="1" fill="#000000" />
<rect x="135" y="11" width="1" height="1" fill="#000000" />
<rect x="136" y="11" width="1" height="1" fill="#000000" />
<rect x="137" y="11" width="1" height="1" fill="#000000" />
<rect x="138" y="11" width="1" height="1" fill="#000000" />
<rect x="139" y="11" width="1" height="1" fill="#000000" />
<rect x="140" y="11" width="1" height="1" fill="#000000" />
<rect x="143" y="11" width="1" height="1" fill="#000000" />
<rect x="144" y="11" width="1" height="1" fill="#000000" />
<rect x="145" y="11" width="1" height="1" fill="#000000" />
<rect x="146" y="11" width="1" height="1" fill="#000000" />
<rect x="147" y="11" width="1" height="1" fill="#000000" />
<rect x="7" y="12" width="1" height="1" fill="#000000" />
<rect x="8" y="12" width="1" height="1" fill="#000000" />
<rect x="9" y="12" width="1" height="1" fill="#000000" />
<rect x="10" y="12" width="1" height="1" fill="#000000" />
<rect x="11" y="12" width="1" height="1" fill="#000000" />
<rect x="12" y="12" width="1" height="1" fill="#000000" />
<rect x="13" y="12" width="1" height="1" fill="#000000" />
<rect x="14" y="12" width="1" height="1" fill="#000000" />
<rect x="32" y="12" width="1" height="1" fill="#000000" />
<rect x="33" y="12" width="1" height="1" fill="#000000" />
<rect x="34" y="12" width="1" height="1" fill="#000000" />
<rect x="35" y="12" width="1" height="1" fill="#000000" />
<rect x="85" y="12" width="1" height="1" fill="#000000" />
<rect x="86" y="12" width="1" height="1" fill="#000000" />
<rect x="87" y="12" width="1" height="1" fill="#000000" />
<rect x="88" y="12" width="1" height="1" fill="#000000" />
<rect x="89" y="12" width="1" height="1" fill="#000000" />
<rect x="90" y="12" width="1" height="1" fill="#000000" />
<rect x="91" y="12" width="1" height="1" fill="#000000" />
</svg>