%YAML 1.1
%TAG !u! tag:unity3d.com,2011:
--- !u!1045 &1
EditorBuildSettings:
  m_ObjectHideFlags: 0
  serializedVersion: 2
  m_Scenes:
  - enabled: 1
    path: Assets/Scenes/MainMenu.unity
    guid: 66cc67a2918de5f45ad0dbd04a127aea
  - enabled: 1
    path: Assets/Scenes/Level1.unity
    guid: 0fcb6ea04ae4f4f41a2518a16e1eb4f1
  - enabled: 1
    path: Assets/Scenes/Level2.unity
    guid: 79e3cb66a0c9d204e84420eb8a8933d3
  - enabled: 1
    path: Assets/Scenes/Level3.unity
    guid: 8aee846de3e0c764ea4d317ae1e795d6
  - enabled: 1
    path: Assets/Scenes/Level4.unity
    guid: 566330289489fd542b82895eec382c6e
  - enabled: 1
    path: Assets/Scenes/Level5.unity
    guid: f33be0e28223f1d4f941bc631c42136b
  - enabled: 1
    path: Assets/Scenes/Level6.unity
    guid: 0cc010ac62370432098769b6f69231ea
  - enabled: 1
    path: Assets/Scenes/Level7.unity
    guid: 11def78e50400ef42a9977f69e39907f
  - enabled: 1
    path: Assets/Scenes/Level8.unity
    guid: 4a7238f4839eae941bc917970bbc58e9
  - enabled: 1
    path: Assets/Scenes/Level9.unity
    guid: 4fbe1d7ea04fa3b4d9c2a9150e801309
  - enabled: 1
    path: Assets/Scenes/Level10.unity
    guid: 4d43e42666b77d045ac9deaa901d9166
  - enabled: 1
    path: Assets/Scenes/Level11.unity
    guid: b824bee0754db3d4aaff9c2678921cba
  - enabled: 1
    path: Assets/Scenes/Level12.unity
    guid: eb0aa020d6c5f1f4f856e48bfea62295
  - enabled: 1
    path: Assets/Scenes/EndGame.unity
    guid: 353a64c0171fe2f4483d36b0cc870ce0
  m_configObjects: {}
