%YAML 1.1
%TAG !u! tag:unity3d.com,2011:
--- !u!78 &1
TagManager:
  serializedVersion: 2
  tags:
  - Ground
  - Enemy
  - Goal
  - Fire
  - BlueBox
  - FireExtinquisher
  - NeutralBox
  - BlueButton
  - RedButton
  - Box
  - Mirror
  - RedBox
  - SoundManager
  - Projectile
  - ProjectileReceiver
  - Slider
  - InputControllerManager
  - ReloadSceneManager
  - DeathScreen
  - TileManager
  - PhaseManager
  - DialogueEnabler
  - ExitDoor
  - Laser
  - Boss
  - ProjectileShooter
  - RespawnPoint
  layers:
  - Default
  - TransparentFX
  - Ignore Raycast
  - 
  - Water
  - UI
  - Background
  - Ground
  - Enemy
  - Player
  - Foreground
  - neutral
  - redZones
  - blueZones
  - BlueHolding
  - RedHolding
  - InteractObjects
  - Projectile
  - ExclusionZones
  - Fire
  - SpawnZone
  - 
  - 
  - 
  - 
  - 
  - 
  - 
  - 
  - 
  - 
  - 
  - 
  m_SortingLayers:
  - name: Default
    uniqueID: 0
    locked: 0
